fonbetParser\SeleniumWebDriver.class
fonbetParser\ConvertInterface.class
fonbetParser\Application.class
fonbetParser\RabbitMqProvider.class
fonbetParser\IStringParser.class
fonbetParser\SportTeamsHTMLBlock.class
fonbetParser\StringParser.class
